Request method:	GET
Request URI:	https://reqres.in/api/users?page=2
Proxy:			<none>
Request params:	<none>
Query params:	<none>
Form params:	<none>
Path params:	<none>
Headers:		Accept=*/*
				Content-Type=Application/json
Cookies:		<none>
Multiparts:		<none>
Body:			<none>
HTTP/1.1 200 OK
Date: Tue, 04 Feb 2025 10:02:56 GMT
Content-Type: application/json; charset=utf-8
Transfer-Encoding: chunked
Connection: keep-alive
Report-To: {"group":"heroku-nel","max_age":3600,"endpoints":[{"url":"https://nel.heroku.com/reports?ts=1738163668&sid=c4c9725f-1ab0-44d8-820f-430df2718e11&s=SbFX97uKzhq1E78m6SKmni70vAIqP2CYrdmAjm%2FnQ4k%3D"}]}
Reporting-Endpoints: heroku-nel=https://nel.heroku.com/reports?ts=1738163668&sid=c4c9725f-1ab0-44d8-820f-430df2718e11&s=SbFX97uKzhq1E78m6SKmni70vAIqP2CYrdmAjm%2FnQ4k%3D
Nel: {"report_to":"heroku-nel","max_age":3600,"success_fraction":0.005,"failure_fraction":0.05,"response_headers":["Via"]}
X-Powered-By: Express
Access-Control-Allow-Origin: *
Etag: W/"440-ZjsmMKR8P3usr2uJZbOCGCxC3Uw"
Via: 1.1 vegur
Cache-Control: max-age=14400
CF-Cache-Status: HIT
Age: 2458
Vary: Accept-Encoding
Server: cloudflare
CF-RAY: 90c9d3f76a552e36-BOM
Content-Encoding: gzip
server-timing: cfL4;desc="?proto=TCP&rtt=52260&min_rtt=45971&rtt_var=29818&sent=7&recv=8&lost=0&retrans=1&sent_bytes=4179&recv_bytes=630&delivery_rate=17669&cwnd=253&unsent_bytes=0&cid=193b6d4f630aecce&ts=624&x=0"

{
    "page": 2,
    "per_page": 6,
    "total": 12,
    "total_pages": 2,
    "data": [
        {
            "id": 7,
            "email": "michael.lawson@reqres.in",
            "first_name": "Michael",
            "last_name": "Lawson",
            "avatar": "https://reqres.in/img/faces/7-image.jpg"
        },
        {
            "id": 8,
            "email": "lindsay.ferguson@reqres.in",
            "first_name": "Lindsay",
            "last_name": "Ferguson",
            "avatar": "https://reqres.in/img/faces/8-image.jpg"
        },
        {
            "id": 9,
            "email": "tobias.funke@reqres.in",
            "first_name": "Tobias",
            "last_name": "Funke",
            "avatar": "https://reqres.in/img/faces/9-image.jpg"
        },
        {
            "id": 10,
            "email": "byron.fields@reqres.in",
            "first_name": "Byron",
            "last_name": "Fields",
            "avatar": "https://reqres.in/img/faces/10-image.jpg"
        },
        {
            "id": 11,
            "email": "george.edwards@reqres.in",
            "first_name": "George",
            "last_name": "Edwards",
            "avatar": "https://reqres.in/img/faces/11-image.jpg"
        },
        {
            "id": 12,
            "email": "rachel.howell@reqres.in",
            "first_name": "Rachel",
            "last_name": "Howell",
            "avatar": "https://reqres.in/img/faces/12-image.jpg"
        }
    ],
    "support": {
        "url": "https://contentcaddy.io?utm_source=reqres&utm_medium=json&utm_campaign=referral",
        "text": "Tired of writing endless social media content? Let Content Caddy generate it for you."
    }
}
Request method:	POST
Request URI:	https://reqres.in/api/users
Proxy:			<none>
Request params:	<none>
Query params:	<none>
Form params:	<none>
Path params:	<none>
Headers:		Accept=*/*
				Content-Type=Application/json
Cookies:		<none>
Multiparts:		<none>
Body:
{
    "email": "arunkum@gm.com",
    "first_name": "Arun",
    "last_name": "Kumar",
    "avatar": "\"https://reqres.in/img/faces/8-image.jpg\""
}
HTTP/1.1 201 Created
Date: Tue, 04 Feb 2025 10:02:58 GMT
Content-Type: application/json; charset=utf-8
Content-Length: 171
Connection: keep-alive
Report-To: {"group":"heroku-nel","max_age":3600,"endpoints":[{"url":"https://nel.heroku.com/reports?ts=1738663378&sid=c4c9725f-1ab0-44d8-820f-430df2718e11&s=TMjHSBXbl%2B60Ddo%2F7HFSCcb9vM4aCpgPYSdR%2BhxEjxY%3D"}]}
Reporting-Endpoints: heroku-nel=https://nel.heroku.com/reports?ts=1738663378&sid=c4c9725f-1ab0-44d8-820f-430df2718e11&s=TMjHSBXbl%2B60Ddo%2F7HFSCcb9vM4aCpgPYSdR%2BhxEjxY%3D
Nel: {"report_to":"heroku-nel","max_age":3600,"success_fraction":0.005,"failure_fraction":0.05,"response_headers":["Via"]}
X-Powered-By: Express
Access-Control-Allow-Origin: *
Etag: W/"ab-rQUC6Al5rqtmNhBWRiNmw8oOQkU"
Via: 1.1 vegur
cf-cache-status: DYNAMIC
Server: cloudflare
CF-RAY: 90c9d4048a963228-BOM
server-timing: cfL4;desc="?proto=TCP&rtt=44792&min_rtt=43921&rtt_var=14006&sent=7&recv=7&lost=0&retrans=0&sent_bytes=2835&recv_bytes=766&delivery_rate=63518&cwnd=252&unsent_bytes=0&cid=2e59edf8d1f17c99&ts=488&x=0"

{
    "email": "arunkum@gm.com",
    "first_name": "Arun",
    "last_name": "Kumar",
    "avatar": "\"https://reqres.in/img/faces/8-image.jpg\"",
    "id": "695",
    "createdAt": "2025-02-04T10:02:58.863Z"
}
Request method:	PUT
Request URI:	https://reqres.in/api/users/2
Proxy:			<none>
Request params:	<none>
Query params:	<none>
Form params:	<none>
Path params:	<none>
Headers:		Accept=*/*
				Content-Type=Application/json
Cookies:		<none>
Multiparts:		<none>
Body:
{
    "name": "morpheus",
    "job": "manager"
}
HTTP/1.1 200 OK
Date: Tue, 04 Feb 2025 10:02:59 GMT
Content-Type: application/json; charset=utf-8
Transfer-Encoding: chunked
Connection: keep-alive
Report-To: {"group":"heroku-nel","max_age":3600,"endpoints":[{"url":"https://nel.heroku.com/reports?ts=1738663379&sid=c4c9725f-1ab0-44d8-820f-430df2718e11&s=RMIvZ7YLS4r1Hy5C6zvNABenMoMGZJQvhFwLuwvrjyg%3D"}]}
Reporting-Endpoints: heroku-nel=https://nel.heroku.com/reports?ts=1738663379&sid=c4c9725f-1ab0-44d8-820f-430df2718e11&s=RMIvZ7YLS4r1Hy5C6zvNABenMoMGZJQvhFwLuwvrjyg%3D
Nel: {"report_to":"heroku-nel","max_age":3600,"success_fraction":0.005,"failure_fraction":0.05,"response_headers":["Via"]}
X-Powered-By: Express
Access-Control-Allow-Origin: *
Etag: W/"4a-xM74OMoJaKnvU3EQ0pptD989apA"
Via: 1.1 vegur
CF-Cache-Status: DYNAMIC
Vary: Accept-Encoding
Server: cloudflare
CF-RAY: 90c9d4097f253227-BOM
Content-Encoding: gzip
server-timing: cfL4;desc="?proto=TCP&rtt=46480&min_rtt=45939&rtt_var=10736&sent=7&recv=8&lost=0&retrans=0&sent_bytes=2835&recv_bytes=680&delivery_rate=62383&cwnd=252&unsent_bytes=0&cid=b4da4e80b91b7192&ts=474&x=0"

{
    "name": "morpheus",
    "job": "manager",
    "updatedAt": "2025-02-04T10:02:59.646Z"
}
Request method:	DELETE
Request URI:	https://reqres.in/api/users/
Proxy:			<none>
Request params:	<none>
Query params:	<none>
Form params:	<none>
Path params:	<none>
Headers:		Accept=*/*
				Content-Type=Application/json
Cookies:		<none>
Multiparts:		<none>
Body:			<none>
HTTP/1.1 204 No Content
Date: Tue, 04 Feb 2025 10:03:00 GMT
Content-Length: 0
Connection: keep-alive
Report-To: {"group":"heroku-nel","max_age":3600,"endpoints":[{"url":"https://nel.heroku.com/reports?ts=1738663380&sid=c4c9725f-1ab0-44d8-820f-430df2718e11&s=4fKCwcrPRUtzT5aezc3qGKvhWesBSjvrMuNagkz7mBE%3D"}]}
Reporting-Endpoints: heroku-nel=https://nel.heroku.com/reports?ts=1738663380&sid=c4c9725f-1ab0-44d8-820f-430df2718e11&s=4fKCwcrPRUtzT5aezc3qGKvhWesBSjvrMuNagkz7mBE%3D
Nel: {"report_to":"heroku-nel","max_age":3600,"success_fraction":0.005,"failure_fraction":0.05,"response_headers":["Via"]}
X-Powered-By: Express
Access-Control-Allow-Origin: *
Etag: W/"2-vyGp6PvFo4RvsFtPoIWeCReyIC8"
Via: 1.1 vegur
cf-cache-status: DYNAMIC
Server: cloudflare
CF-RAY: 90c9d40e482e6ef2-BOM
server-timing: cfL4;desc="?proto=TCP&rtt=47560&min_rtt=44334&rtt_var=14270&sent=7&recv=7&lost=0&retrans=0&sent_bytes=2835&recv_bytes=627&delivery_rate=64961&cwnd=252&unsent_bytes=0&cid=e0fb15bf1d47ef26&ts=485&x=0"
